[
  [
    {
      "id": "0475e08e-b090-4d75-ab75-f9ffa25d453d",
      "createTime": "2019-04-11 06:47:29",
      "updateTime": "2019-04-11 06:47:35",
      "createBy": "f4cdb7d0-fad9-11e8-8407-97bac90597c3",
      "updateBy": "f4cdb7d0-fad9-11e8-8407-97bac90597c3",
      "cardId": "01e18040-3f50-11e9-a47d-4780f08f37f1",
      "userId": "f4cdb7d0-fad9-11e8-8407-97bac90597c3",
      "billTypeId": "32291f40-2cfb-11e9-b803-2fb0ad7f2291",
      "money": 0,
      "billDesc": "早餐",
      "dateTime": "2019-04-10 06:47:18",
      "billTransfer": null,
      "billTypeName": "饮食",
      "userName": "彭志兰",
      "cardName": "农业银行卡"
    },
    {
      "id": "050af7b8-6e67-44db-8355-6c52e4add4de",
      "createTime": "2019-06-02 22:56:03",
      "updateTime": null,
      "createBy": "f4cdb7d0-fad9-11e8-8407-97bac90597c3",
      "updateBy": null,
      "cardId": "01e18040-3f50-11e9-a47d-4780f08f37f1",
      "userId": "f4cdb7d0-fad9-11e8-8407-97bac90597c3",
      "billTypeId": "32291f40-2cfb-11e9-b803-2fb0ad7f2291",
      "money": 0,
      "billDesc": "饼干",
      "dateTime": "2019-06-02 22:55:48",
      "billTransfer": null,
      "billTypeName": "饮食",
      "userName": "彭志兰",
      "cardName": "农业银行卡"
    },
    {
      "id": "0543c920-344f-11e9-b743-2574d7883c40",
      "createTime": "2019-02-19 22:02:40",
      "updateTime": "2019-02-19 22:03:06",
      "createBy": "f4cdb7d0-fad9-11e8-8407-97bac90597c3",
      "updateBy": "f4cdb7d0-fad9-11e8-8407-97bac90597c3",
      "cardId": "fc3ad2a0-2c75-11e9-ad9d-8b0a6420bc1c",
      "userId": "f4cdb7d0-fad9-11e8-8407-97bac90597c3",
      "billTypeId": "8806afc0-48b9-11e9-8d3e-81dd7e97f3cf",
      "money": 0,
      "billDesc": "微信红包",
      "dateTime": "2019-02-19 22:02:05",
      "billTransfer": null,
      "billTypeName": "收红包",
      "userName": "彭志兰",
      "cardName": "微信"
    },
    {
      "id": "05ce44d7-b5a5-4e62-b4b8-b6675254a81c",
      "createTime": "2019-05-27 21:40:51",
      "updateTime": null,
      "createBy": "f4cdb7d0-fad9-11e8-8407-97bac90597c3",
      "updateBy": null,
      "cardId": "f486edf0-2c75-11e9-ad9d-8b0a6420bc1c",
      "userId": "f4cdb7d0-fad9-11e8-8407-97bac90597c3",
      "billTypeId": "7e4d68b0-48ba-11e9-8d3e-81dd7e97f3cf",
      "money": 0,
      "billDesc": "余额宝收益",
      "dateTime": "2019-05-27 21:40:37",
      "billTransfer": null,
      "billTypeName": "理财收益",
      "userName": "彭志兰",
      "cardName": "支付宝"
    },
    {
      "id": "05d1bae0-3fcc-11e9-bcc4-575b0d6a1b9c",
      "createTime": "2019-03-06 12:55:11",
      "updateTime": null,
      "createBy": "f4cdb7d0-fad9-11e8-8407-97bac90597c3",
      "updateBy": null,
      "cardId": "cf830e40-312e-11e9-b743-2574d7883c40",
      "userId": "f4cdb7d0-fad9-11e8-8407-97bac90597c3",
      "billTypeId": "32291f40-2cfb-11e9-b803-2fb0ad7f2291",
      "money": 0,
      "billDesc": "午餐",
      "dateTime": "2019-03-06 12:54:56",
      "billTransfer": null,
      "billTypeName": "饮食",
      "userName": "彭志兰",
      "cardName": "现金"
    },
    {
      "id": "06afbda4-13fc-41ec-86a5-e743a2dda282",
      "createTime": "2019-05-22 20:52:57",
      "updateTime": null,
      "createBy": "f4cdb7d0-fad9-11e8-8407-97bac90597c3",
      "updateBy": null,
      "cardId": "01e18040-3f50-11e9-a47d-4780f08f37f1",
      "userId": "f4cdb7d0-fad9-11e8-8407-97bac90597c3",
      "billTypeId": "924a92a0-2c74-11e9-ad9d-8b0a6420bc1c",
      "money": 0,
      "billDesc": "口罩，板蓝根",
      "dateTime": "2019-05-22 20:52:38",
      "billTransfer": null,
      "billTypeName": "生活用品",
      "userName": "彭志兰",
      "cardName": "农业银行卡"
    },
    {
      "id": "076eb7ef-a42a-4993-baf4-bef4c5161514",
      "createTime": "2019-05-12 13:30:08",
      "updateTime": null,
      "createBy": "f4cdb7d0-fad9-11e8-8407-97bac90597c3",
      "updateBy": null,
      "cardId": "01e18040-3f50-11e9-a47d-4780f08f37f1",
      "userId": "f4cdb7d0-fad9-11e8-8407-97bac90597c3",
      "billTypeId": "32291f40-2cfb-11e9-b803-2fb0ad7f2291",
      "money": 0,
      "billDesc": "买米",
      "dateTime": "2019-05-12 13:29:58",
      "billTransfer": null,
      "billTypeName": "饮食",
      "userName": "彭志兰",
      "cardName": "农业银行卡"
    },
    {
      "id": "094b0c6f-2cae-43f9-8c3c-988251e5519d",
      "createTime": "2019-05-26 21:34:58",
      "updateTime": null,
      "createBy": "f4cdb7d0-fad9-11e8-8407-97bac90597c3",
      "updateBy": null,
      "cardId": "01e18040-3f50-11e9-a47d-4780f08f37f1",
      "userId": "f4cdb7d0-fad9-11e8-8407-97bac90597c3",
      "billTypeId": "32291f40-2cfb-11e9-b803-2fb0ad7f2291",
      "money": 0,
      "billDesc": "买水",
      "dateTime": "2019-05-26 21:34:51",
      "billTransfer": null,
      "billTypeName": "饮食",
      "userName": "彭志兰",
      "cardName": "农业银行卡"
    },
    {
      "id": "0b70de30-406d-11e9-bcc4-575b0d6a1b9c",
      "createTime": "2019-03-07 08:07:49",
      "updateTime": null,
      "createBy": "f4cdb7d0-fad9-11e8-8407-97bac90597c3",
      "updateBy": null,
      "cardId": "cf830e40-312e-11e9-b743-2574d7883c40",
      "userId": "f4cdb7d0-fad9-11e8-8407-97bac90597c3",
      "billTypeId": "32291f40-2cfb-11e9-b803-2fb0ad7f2291",
      "money": 0,
      "billDesc": "早餐",
      "dateTime": "2019-03-07 08:07:38",
      "billTransfer": null,
      "billTypeName": "饮食",
      "userName": "彭志兰",
      "cardName": "现金"
    },
    {
      "id": "0c001291-9d1a-4d20-8b00-32044ff4d6ef",
      "createTime": "2019-04-15 19:19:42",
      "updateTime": null,
      "createBy": "f4cdb7d0-fad9-11e8-8407-97bac90597c3",
      "updateBy": null,
      "cardId": "01e18040-3f50-11e9-a47d-4780f08f37f1",
      "userId": "f4cdb7d0-fad9-11e8-8407-97bac90597c3",
      "billTypeId": "32291f40-2cfb-11e9-b803-2fb0ad7f2291",
      "money": 0,
      "billDesc": "买菜",
      "dateTime": "2019-04-15 19:19:32",
      "billTransfer": null,
      "billTypeName": "饮食",
      "userName": "彭志兰",
      "cardName": "农业银行卡"
    },
    {
      "id": "0c721924-16e4-407b-8bc4-0343d71bdeea",
      "createTime": "2019-04-08 20:52:20",
      "updateTime": "2019-04-09 23:01:33",
      "createBy": "f4cdb7d0-fad9-11e8-8407-97bac90597c3",
      "updateBy": "f4cdb7d0-fad9-11e8-8407-97bac90597c3",
      "cardId": "01e18040-3f50-11e9-a47d-4780f08f37f1",
      "userId": "f4cdb7d0-fad9-11e8-8407-97bac90597c3",
      "billTypeId": "32291f40-2cfb-11e9-b803-2fb0ad7f2291",
      "money": 0,
      "billDesc": "买菜",
      "dateTime": "2019-04-08 20:52:07",
      "billTransfer": null,
      "billTypeName": "饮食",
      "userName": "彭志兰",
      "cardName": "农业银行卡"
    },
    {
      "id": "0cddedab-be1e-49fa-9b85-e931466c840b",
      "createTime": "2019-05-23 22:32:37",
      "updateTime": null,
      "createBy": "f4cdb7d0-fad9-11e8-8407-97bac90597c3",
      "updateBy": null,
      "cardId": "f486edf0-2c75-11e9-ad9d-8b0a6420bc1c",
      "userId": "f4cdb7d0-fad9-11e8-8407-97bac90597c3",
      "billTypeId": "7e4d68b0-48ba-11e9-8d3e-81dd7e97f3cf",
      "money": 0,
      "billDesc": "余额宝收益",
      "dateTime": "2019-05-23 22:32:14",
      "billTransfer": null,
      "billTypeName": "理财收益",
      "userName": "彭志兰",
      "cardName": "支付宝"
    },
    {
      "id": "0d40c880-ce33-4cc9-87e3-fc98b825e815",
      "createTime": "2019-05-31 21:46:40",
      "updateTime": null,
      "createBy": "f4cdb7d0-fad9-11e8-8407-97bac90597c3",
      "updateBy": null,
      "cardId": "01e18040-3f50-11e9-a47d-4780f08f37f1",
      "userId": "f4cdb7d0-fad9-11e8-8407-97bac90597c3",
      "billTypeId": "32291f40-2cfb-11e9-b803-2fb0ad7f2291",
      "money": 0,
      "billDesc": "买油",
      "dateTime": "2019-05-31 21:46:30",
      "billTransfer": null,
      "billTypeName": "饮食",
      "userName": "彭志兰",
      "cardName": "农业银行卡"
    },
    {
      "id": "0e963c49-d642-4ae8-a0d9-6c9e2336a7d6",
      "createTime": "2019-04-02 20:29:37",
      "updateTime": "2019-04-02 20:29:57",
      "createBy": "f4cdb7d0-fad9-11e8-8407-97bac90597c3",
      "updateBy": "f4cdb7d0-fad9-11e8-8407-97bac90597c3",
      "cardId": "01e18040-3f50-11e9-a47d-4780f08f37f1",
      "userId": "f4cdb7d0-fad9-11e8-8407-97bac90597c3",
      "billTypeId": "32291f40-2cfb-11e9-b803-2fb0ad7f2291",
      "money": 0,
      "billDesc": "买水",
      "dateTime": "2019-04-02 20:29:06",
      "billTransfer": null,
      "billTypeName": "饮食",
      "userName": "彭志兰",
      "cardName": "农业银行卡"
    },
    {
      "id": "0f342216-a5d0-43d3-bb2d-93120756d48e",
      "createTime": "2019-05-23 22:31:32",
      "updateTime": null,
      "createBy": "f4cdb7d0-fad9-11e8-8407-97bac90597c3",
      "updateBy": null,
      "cardId": "01e18040-3f50-11e9-a47d-4780f08f37f1",
      "userId": "f4cdb7d0-fad9-11e8-8407-97bac90597c3",
      "billTypeId": "32291f40-2cfb-11e9-b803-2fb0ad7f2291",
      "money": 0,
      "billDesc": "早餐",
      "dateTime": "2019-05-23 22:31:22",
      "billTransfer": null,
      "billTypeName": "饮食",
      "userName": "彭志兰",
      "cardName": "农业银行卡"
    }
  ],
  {
    "pageIndex": 1,
    "pageSize": 15,
    "count": 338,
    "pageCount": 23
  }
]
